Better Data Cleaning using R and the Tidyverse
…
## Example of Boundary Constraints

Dplyr has a `between()` function which can be helpful when used in conjunction with the negation operator <mark>`!`</mark>

```r
# What if we were to assume that any height larger than 300cm is abnormally large?
data_superhero %>% 
* filter(!between(x = height,
                 left = 0,
                 right = 300))
```

```
## # A tibble: 225 x 11
##       id name  gender eye_color race  hair_color height publisher skin_color
##    <dbl> <chr> <chr>  <chr>     <chr> <chr>       <dbl> <chr>     <chr>     
##  1     4 Abra~ Male   blue      Cosm~ Black         -99 Marvel C~ -         
##  2     6 Adam~ Male   blue      -     Blond         -99 NBC - He~ -         
##  3    14 Alex~ Male   -         Human -             -99 Wildstorm -         
##  4    15 Alex~ Male   -         -     -             -99 NBC - He~ -         
##  5    18 Alla~ Male   -         -     -             -99 Wildstorm -         
##  6    21 Ando~ Male   -         -     -             -99 NBC - He~ -         
##  7    23 Angel Male   -         Vamp~ -             -99 Dark Hor~ -         
##  8    26 Ange~ Female -         -     -             -99 Image Co~ -         
##  9    32 Anti~ Male   -         -     -             -99 Image Co~ -         
## 10    35 Aqua~ Male   blue      -     Blond         -99 DC Comics -         
## # ... with 215 more rows, and 2 more variables: alignment <chr>, weight <dbl>
```
…
## Was the problem fixed?

```
## # A tibble: 734 x 11
##       id name  gender eye_color race  hair_color height publisher skin_color
##    <dbl> <chr> <chr>  <chr>     <chr> <chr>       <dbl> <chr>     <chr>     
##  1     0 A-Bo~ Male   yellow    Human No Hair       203 Marvel C~ -         
##  2     1 Abe ~ Male   blue      Icth~ No Hair       191 Dark Hor~ blue      
##  3     2 Abin~ Male   blue      Unga~ No Hair       185 DC Comics red       
##  4     3 Abom~ Male   green     Huma~ No Hair       203 Marvel C~ -         
*##  5     4 Abra~ Male   blue      Cosm~ Black          NA Marvel C~ -         
##  6     5 Abso~ Male   blue      Human No Hair       193 Marvel C~ -         
*##  7     6 Adam~ Male   blue      -     Blond          NA NBC - He~ -         
##  8     7 Adam~ Male   blue      Human Blond         185 DC Comics -         
##  9     8 Agen~ Female blue      -     Blond         173 Marvel C~ -         
## 10     9 Agen~ Male   brown     Human Brown         178 Marvel C~ -         
## # ... with 724 more rows, and 2 more variables: alignment <chr>, weight <dbl>
```
…
## `eye_color`

Let's keep going to see what else we can discover through profiling our data .

```r
fct_count(data_superhero$eye_color) %>% 
  arrange(f) %>%
  View()
```

```
## # A tibble: 23 x 2
##    f                n
##    <fct>        <int>
##  1 amber            2
##  2 black           23
##  3 blue           225
##  4 blue / white     1
##  5 bown             1
##  6 brown          126
##  7 gold             3
##  8 green           73
##  9 green / blue     1
## 10 grey             6
## # ... with 13 more rows
```
…
